{"count":345,"next":"https://ll.thespacedevs.com/2.0.0/launch/upcoming/?limit=10&offset=10","previous":null,"results":[{"id":"94ec1605-bd9c-47fa-9f36-69148ee4e370","url":"https://ll.thespacedevs.com/2.0.0/launch/94ec1605-bd9c-47fa-9f36-69148ee4e370/","launch_library_id":null,"slug":"falcon-9-block-5-starlink-group-10-37","name":"Falcon 9 Block 5 | Starlink Group 10-37","status":{"id":1,"name":"Go"},"net":"2025-10-29T16:16:50Z","window_end":"2025-10-29T16:52:00Z","window_start":"2025-10-29T12:52:00Z","inhold":false,"tbdtime":false,"tbddate":false,"probability":95,"holdreason":"","failreason":"","hashtag":null,"launch_service_provider":{"id":121,"url":"https://ll.thespacedevs.com/2.0.0/agencies/121/","name":"SpaceX","type":"Commercial"},"rocket":{"id":8773,"configuration":{"id":164,"launch_library_id":188,"url":"https://ll.thespacedevs.com/2.0.0/config/launcher/164/","name":"Falcon 9","family":"Falcon","full_name":"Falcon 9 Block 5","variant":"Block 5"}},"mission":{"id":7364,"launch_library_id":null,"name":"Starlink Group 10-37","description":"A batch of 29 satellites for the Starlink mega-constellation - SpaceX's project for space-based Internet communication system.","launch_designator":null,"type":"Communications","orbit":{"id":8,"name":"Low Earth Orbit","abbrev":"LEO"}},"pad":{"id":80,"url":"https://ll.thespacedevs.com/2.0.0/pad/80/","agency_id":121,"name":"Space Launch Complex 40","info_url":null,"wiki_url":"https://en.wikipedia.org/wiki/Cape_Canaveral_Air_Force_Station_Space_Launch_Complex_40","map_url":"https://www.google.com/maps?q=28.56194122,-80.57735736","latitude":"28.56194122","longitude":"-80.57735736","location":{"id":12,"url":"https://ll.thespacedevs.com/2.0.0/location/12/","name":"Cape Canaveral SFS, FL, USA","country_code":"USA","map_image":"https://thespacedevs-prod.nyc3.digitaloceanspaces.com/media/map_images/location_12_20200803142519.jpg","total_launch_count":1062,"total_landing_count":68},"map_image":"https://thespacedevs-prod.nyc3.digitaloceanspaces.com/media/map_images/pad_80_20200803143323.jpg","total_launch_count":343},"webcast_live":false,"image":"https://thespacedevs-prod.nyc3.digitaloceanspaces.com/media/images/falcon2520925_image_20221009234147.png","infographic":null,"program":[{"id":25,"url":"https://ll.thespacedevs.com/2.0.0/program/25/","name":"Starlink","description":"Starlink is a satellite internet constellation operated by American aerospace company SpaceX","agencies":[{"id":121,"url":"https://ll.thespacedevs.com/2.0.0/agencies/121/","name":"SpaceX","type":"Commercial"}],"image_url":"https://thespacedevs-prod.nyc3.digitaloceanspaces.com/media/images/starlink_program_20231228154508.jpeg","start_date":"2018-02-22T14:17:00Z","end_date":null,"info_url":"https://starlink.com","wiki_url":"https://en.wikipedia.org/wiki/Starlink"}]},{"id":"e92f090c-cb6a-4e1a-8e07-5a97dbf1c450","url":"https://ll.thespacedevs.com/2.0.0/launch/e92f090c-cb6a-4e1a-8e07-5a97dbf1c450/","launch_library_id":null,"slug":"falcon-9-block-5-starlink-group-11-23","name":"Falcon 9 Block 5 | Starlink Group 11-23","status":{"id":1,"name":"Go"},"net":"2025-10-30T20:06:00Z","window_end":"2025-10-31T00:06:00Z","window_start":"2025-10-30T20:06:00Z","inhold":false,"tbdtime":false,"tbddate":false,"probability":null,"holdreason":"","failreason":"","hashtag":null,"launch_service_provider":{"id":121,"url":"https://ll.thespacedevs.com/2.0.0/agencies/121/","name":"SpaceX","type":"Commercial"},"rocket":{"id":8774,"configuration":{"id":164,"launch_library_id":188,"url":"https://ll.thespacedevs.com/2.0.0/config/launcher/164/","name":"Falcon 9","family":"Falcon","full_name":"Falcon 9 Block 5","variant":"Block 5"}},"mission":{"id":7365,"launch_library_id":null,"name":"Starlink Group 11-23","description":"A batch of 28 satellites for the Starlink mega-constellation - SpaceX's project for space-based Internet communication system.","launch_designator":null,"type":"Communications","orbit":{"id":8,"name":"Low Earth Orbit","abbrev":"LEO"}},"pad":{"id":16,"url":"https://ll.thespacedevs.com/2.0.0/pad/16/","agency_id":null,"name":"Space Launch Complex 4E","info_url":null,"wiki_url":"https://en.wikipedia.org/wiki/Vandenberg_Space_Launch_Complex_4#SLC-4E","map_url":"https://www.google.com/maps?q=34.632,-120.611","latitude":"34.632","longitude":"-120.611","location":{"id":11,"url":"https://ll.thespacedevs.com/2.0.0/location/11/","name":"Vandenberg SFB, CA, USA","country_code":"USA","map_image":"https://thespacedevs-prod.nyc3.digitaloceanspaces.com/media/map_images/location_11_20200803142416.jpg","total_launch_count":841,"total_landing_count":29},"map_image":"https://thespacedevs-prod.nyc3.digitaloceanspaces.com/media/map_images/pad_16_20200803143532.jpg","total_launch_count":227},"webcast_live":false,"image":"https://thespacedevs-prod.nyc3.digitaloceanspaces.com/media/images/falcon2520925_image_20221009234147.png","infographic":null,"program":[{"id":25,"url":"https://ll.thespacedevs.com/2.0.0/program/25/","name":"Starlink","description":"Starlink is a satellite internet constellation operated by American aerospace company SpaceX","agencies":[{"id":121,"url":"https://ll.thespacedevs.com/2.0.0/agencies/121/","name":"SpaceX","type":"Commercial"}],"image_url":"https://thespacedevs-prod.nyc3.digitaloceanspaces.com/media/images/starlink_program_20231228154508.jpeg","start_date":"2018-02-22T14:17:00Z","end_date":null,"info_url":"https://starlink.com","wiki_url":"https://en.wikipedia.org/wiki/Starlink"}]},{"id":"5ca83f30-9e3d-439c-ac1d-b57953943355","url":"https://ll.thespacedevs.com/2.0.0/launch/5ca83f30-9e3d-439c-ac1d-b57953943355/","launch_library_id":null,"slug":"long-march-2fg-shenzhou-21","name":"Long March 2F/G | Shenzhou 21","status":{"id":1,"name":"Go"},"net":"2025-10-31T15:44:00Z","window_end":"2025-10-31T16:14:00Z","window_start":"2025-10-31T15:34:00Z","inhold":false,"tbdtime":false,"tbddate":false,"probability":null,"holdreason":"","failreason":"","hashtag":null,"launch_service_provider":{"id":88,"url":"https://ll.thespacedevs.com/2.0.0/agencies/88/","name":"China Aerospace Science and Technology Corporation","type":"Government"},"rocket":{"id":8559,"configuration":{"id":84,"launch_library_id":111,"url":"https://ll.thespacedevs.com/2.0.0/config/launcher/84/","name":"Long March 2","family":"Long March","full_name":"Long March 2F/G","variant":"F/G"}},"mission":{"id":7150,"launch_library_id":null,"name":"Shenzhou 21","description":"Tenth crewed flight to the Chinese space station.","launch_designator":null,"type":"Human Exploration","orbit":{"id":8,"name":"Low Earth Orbit","abbrev":"LEO"}},"pad":{"id":37,"url":"https://ll.thespacedevs.com/2.0.0/pad/37/","agency_id":null,"name":"Launch Area 4 (SLS-1 / 921)","info_url":null,"wiki_url":"https://en.wikipedia.org/wiki/Jiuquan_Launch_Area_4","map_url":"https://www.google.com/maps?q=40.957893,100.290944","latitude":"40.957893","longitude":"100.290944","location":{"id":17,"url":"https://ll.thespacedevs.com/2.0.0/location/17/","name":"Jiuquan Satellite Launch Center, People's Republic of China","country_code":"CHN","map_image":"https://thespacedevs-prod.nyc3.digitaloceanspaces.com/media/map_images/location_17_20200803142429.jpg","total_launch_count":261,"total_landing_count":0},"map_image":"https://thespacedevs-prod.nyc3.digitaloceanspaces.com/media/map_images/pad_37_20200803143603.jpg","total_launch_count":25},"webcast_live":false,"image":"https://thespacedevs-prod.nyc3.digitaloceanspaces.com/media/images/long_march_2_image_20210908195835.jpeg","infographic":null,"program":[{"id":7,"url":"https://ll.thespacedevs.com/2.0.0/program/7/","name":"Shenzhou","description":"The Shenzhou program is a crewed spaceflight initiative by China. The program put the first Chinese citizen, Yang Liwei, into orbit on 15 October 2003.","agencies":[{"id":17,"url":"https://ll.thespacedevs.com/2.0.0/agencies/17/","name":"China National Space Administration","type":"Government"}],"image_url":"https://thespacedevs-prod.nyc3.digitaloceanspaces.com/media/images/shenzhou_program_20200820204745.PNG","start_date":"1993-01-01T00:00:00Z","end_date":null,"info_url":null,"wiki_url":"https://en.wikipedia.org/wiki/Shenzhou_program"},{"id":19,"url":"https://ll.thespacedevs.com/2.0.0/program/19/","name":"Tiangong space station","description":"The Tiangong space station is a space station placed in Low Earth orbit between 340 and 450 km above the surface.","agencies":[{"id":88,"url":"https://ll.thespacedevs.com/2.0.0/agencies/88/","name":"China Aerospace Science and Technology Corporation","type":"Government"}],"image_url":"https://thespacedevs-prod.nyc3.digitaloceanspaces.com/media/images/chinese2520spa_program_20210608105528.png","start_date":"2021-04-29T03:23:00Z","end_date":null,"info_url":null,"wiki_url":"https://en.wikipedia.org/wiki/Tiangong_space_station"}]},{"id":"41d2ac1b-a506-47ae-8e44-8b65f5d6f239","url":"https://ll.thespacedevs.com/2.0.0/launch/41d2ac1b-a506-47ae-8e44-8b65f5d6f239/","launch_library_id":null,"slug":"falcon-9-block-5-bandwagon-4-dedicated-mid-inclina","name":"Falcon 9 Block 5 | Bandwagon 4 (Dedicated Mid-Inclination Rideshare)","status":{"id":2,"name":"TBD"},"net":"2025-11-02T05:09:00Z","window_end":"2025-11-02T06:03:00Z","window_start":"2025-11-02T05:00:00Z","inhold":false,"tbdtime":false,"tbddate":false,"probability":null,"holdreason":"","failreason":"","hashtag":null,"launch_service_provider":{"id":121,"url":"https://ll.thespacedevs.com/2.0.0/agencies/121/","name":"SpaceX","type":"Commercial"},"rocket":{"id":7988,"configuration":{"id":164,"launch_library_id":188,"url":"https://ll.thespacedevs.com/2.0.0/config/launcher/164/","name":"Falcon 9","family":"Falcon","full_name":"Falcon 9 Block 5","variant":"Block 5"}},"mission":{"id":6514,"launch_library_id":null,"name":"Bandwagon 4 (Dedicated Mid-Inclination Rideshare)","description":"Dedicated rideshare flight to a mid-inclination orbit with dozens of small microsatellites and nanosatellites for commercial and government customers.","launch_designator":null,"type":"Dedicated Rideshare","orbit":{"id":8,"name":"Low Earth Orbit","abbrev":"LEO"}},"pad":{"id":80,"url":"https://ll.thespacedevs.com/2.0.0/pad/80/","agency_id":121,"name":"Space Launch Complex 40","info_url":null,"wiki_url":"https://en.wikipedia.org/wiki/Cape_Canaveral_Air_Force_Station_Space_Launch_Complex_40","map_url":"https://www.google.com/maps?q=28.56194122,-80.57735736","latitude":"28.56194122","longitude":"-80.57735736","location":{"id":12,"url":"https://ll.thespacedevs.com/2.0.0/location/12/","name":"Cape Canaveral SFS, FL, USA","country_code":"USA","map_image":"https://thespacedevs-prod.nyc3.digitaloceanspaces.com/media/map_images/location_12_20200803142519.jpg","total_launch_count":1062,"total_landing_count":68},"map_image":"https://thespacedevs-prod.nyc3.digitaloceanspaces.com/media/map_images/pad_80_20200803143323.jpg","total_launch_count":343},"webcast_live":false,"image":"https://thespacedevs-prod.nyc3.digitaloceanspaces.com/media/images/falcon_9_image_20230807133459.jpeg","infographic":null,"program":[]},{"id":"05c00251-c8db-4922-9244-d1e407427962","url":"https://ll.thespacedevs.com/2.0.0/launch/05c00251-c8db-4922-9244-d1e407427962/","launch_library_id":1660,"slug":"lvm-3-cms-03-gsat-7r","name":"LVM-3 | CMS-03 (GSAT-7R)","status":{"id":1,"name":"Go"},"net":"2025-11-02T11:56:00Z","window_end":"2025-11-02T11:56:00Z","window_start":"2025-11-02T11:56:00Z","inhold":false,"tbdtime":false,"tbddate":false,"probability":null,"holdreason":"","failreason":"","hashtag":null,"launch_service_provider":{"id":31,"url":"https://ll.thespacedevs.com/2.0.0/agencies/31/","name":"Indian Space Research Organization","type":"Government"},"rocket":{"id":2176,"configuration":{"id":172,"launch_library_id":85,"url":"https://ll.thespacedevs.com/2.0.0/config/launcher/172/","name":"LVM-3 (GSLV Mk III)","family":"GSLV","full_name":"Launch Vehicle Mark-3 (GSLV Mk III)","variant":""}},"mission":{"id":6522,"launch_library_id":null,"name":"CMS-03 (GSAT-7R)","description":"Communications Satellite for the Indian Navy, replacing GSAT-7 for secure real-time links between Indian warships, submarines, aircraft, and shore-based command centers across the Indian Ocean.","launch_designator":null,"type":"Communications","orbit":{"id":2,"name":"Geostationary Transfer Orbit","abbrev":"GTO"}},"pad":{"id":82,"url":"https://ll.thespacedevs.com/2.0.0/pad/82/","agency_id":31,"name":"Satish Dhawan Space Centre Second Launch Pad","info_url":null,"wiki_url":"https://en.wikipedia.org/wiki/Satish_Dhawan_Space_Centre_Second_Launch_Pad","map_url":"https://www.google.com/maps?q=13.7199,80.2304","latitude":"13.7199","longitude":"80.2304","location":{"id":14,"url":"https://ll.thespacedevs.com/2.0.0/location/14/","name":"Satish Dhawan Space Centre, India","country_code":"IND","map_image":"https://thespacedevs-prod.nyc3.digitaloceanspaces.com/media/map_images/location_14_20200803142403.jpg","total_launch_count":100,"total_landing_count":0},"map_image":"https://thespacedevs-prod.nyc3.digitaloceanspaces.com/media/map_images/pad_82_20200803143602.jpg","total_launch_count":30},"webcast_live":false,"image":"https://thespacedevs-prod.nyc3.digitaloceanspaces.com/media/images/gslv2520mk2520iii_image_20190604000938.jpg","infographic":null,"program":[]},{"id":"7afcacb9-32aa-41ee-a000-0c7158f324c2","url":"https://ll.thespacedevs.com/2.0.0/launch/7afcacb9-32aa-41ee-a000-0c7158f324c2/","launch_library_id":null,"slug":"ariane-62-sentinel-1d","name":"Ariane 62 | Sentinel-1D","status":{"id":1,"name":"Go"},"net":"2025-11-04T21:03:00Z","window_end":"2025-11-04T21:03:00Z","window_start":"2025-11-04T21:03:00Z","inhold":false,"tbdtime":false,"tbddate":false,"probability":null,"holdreason":"","failreason":"","hashtag":null,"launch_service_provider":{"id":115,"url":"https://ll.thespacedevs.com/2.0.0/agencies/115/","name":"Arianespace","type":"Commercial"},"rocket":{"id":7718,"configuration":{"id":121,"launch_library_id":164,"url":"https://ll.thespacedevs.com/2.0.0/config/launcher/121/","name":"Ariane 62","family":"Ariane","full_name":"Ariane 62","variant":"62"}},"mission":{"id":6237,"launch_library_id":null,"name":"Sentinel-1D","description":"Sentinel-1D carries an advanced radar technology to provide an all-weather, day-and-night supply of imagery of Earth’s surface as part of the Sentinel-1 constellation.","launch_designator":null,"type":"Earth Science","orbit":{"id":17,"name":"Sun-Synchronous Orbit","abbrev":"SSO"}},"pad":{"id":67,"url":"https://ll.thespacedevs.com/2.0.0/pad/67/","agency_id":115,"name":"Ariane Launch Area 4","info_url":null,"wiki_url":"https://en.wikipedia.org/wiki/Guiana_Space_Centre","map_url":"https://www.google.com/maps?q=5.256319,-52.786838","latitude":"5.256319","longitude":"-52.786838","location":{"id":13,"url":"https://ll.thespacedevs.com/2.0.0/location/13/","name":"Guiana Space Centre, French Guiana","country_code":"GUF","map_image":"https://thespacedevs-prod.nyc3.digitaloceanspaces.com/media/map_images/location_13_20200803142412.jpg","total_launch_count":327,"total_landing_count":0},"map_image":"https://thespacedevs-prod.nyc3.digitaloceanspaces.com/media/map_images/pad_67_20200803143559.jpg","total_launch_count":3},"webcast_live":false,"image":"https://thespacedevs-prod.nyc3.digitaloceanspaces.com/media/images/ariane_62_lifto_image_20240711132056.jpeg","infographic":null,"program":[{"id":22,"url":"https://ll.thespacedevs.com/2.0.0/program/22/","name":"Copernicus","description":"Copernicus is the European Union's Earth observation programme coordinated and managed for the European Commission by the European Union Agency for the Space Programme in partnership with the European Space Agency (ESA), the EU Member States. It aims at achieving a global, continuous, autonomous, high quality, wide range Earth observation capacity. Providing accurate, timely and easily accessible information to, among other things, improve the management of the environment, understand and mitigate the effects of climate change, and ensure civil security.","agencies":[{"id":27,"url":"https://ll.thespacedevs.com/2.0.0/agencies/27/","name":"European Space Agency","type":"Multinational"},{"id":1043,"url":"https://ll.thespacedevs.com/2.0.0/agencies/1043/","name":"European Union Agency for the Space Programme","type":"Multinational"}],"image_url":"https://thespacedevs-prod.nyc3.digitaloceanspaces.com/media/images/copernicus_program_20221129162831.png","start_date":"2014-04-03T00:00:00Z","end_date":null,"info_url":"https://www.copernicus.eu","wiki_url":"https://en.wikipedia.org/wiki/Copernicus_Programme"}]},{"id":"6602c88f-cbff-4495-b417-a184ddb0a426","url":"https://ll.thespacedevs.com/2.0.0/launch/6602c88f-cbff-4495-b417-a184ddb0a426/","launch_library_id":null,"slug":"falcon-9-block-5-starlink-group-11-14","name":"Falcon 9 Block 5 | Starlink Group 11-14","status":{"id":2,"name":"TBD"},"net":"2025-11-04T21:41:00Z","window_end":"2025-11-05T01:41:00Z","window_start":"2025-11-04T21:41:00Z","inhold":false,"tbdtime":false,"tbddate":false,"probability":null,"holdreason":"","failreason":"","hashtag":null,"launch_service_provider":{"id":121,"url":"https://ll.thespacedevs.com/2.0.0/agencies/121/","name":"SpaceX","type":"Commercial"},"rocket":{"id":8779,"configuration":{"id":164,"launch_library_id":188,"url":"https://ll.thespacedevs.com/2.0.0/config/launcher/164/","name":"Falcon 9","family":"Falcon","full_name":"Falcon 9 Block 5","variant":"Block 5"}},"mission":{"id":7370,"launch_library_id":null,"name":"Starlink Group 11-14","description":"A batch of satellites for the Starlink mega-constellation - SpaceX's project for space-based Internet communication system.","launch_designator":null,"type":"Communications","orbit":{"id":8,"name":"Low Earth Orbit","abbrev":"LEO"}},"pad":{"id":16,"url":"https://ll.thespacedevs.com/2.0.0/pad/16/","agency_id":null,"name":"Space Launch Complex 4E","info_url":null,"wiki_url":"https://en.wikipedia.org/wiki/Vandenberg_Space_Launch_Complex_4#SLC-4E","map_url":"https://www.google.com/maps?q=34.632,-120.611","latitude":"34.632","longitude":"-120.611","location":{"id":11,"url":"https://ll.thespacedevs.com/2.0.0/location/11/","name":"Vandenberg SFB, CA, USA","country_code":"USA","map_image":"https://thespacedevs-prod.nyc3.digitaloceanspaces.com/media/map_images/location_11_20200803142416.jpg","total_launch_count":841,"total_landing_count":29},"map_image":"https://thespacedevs-prod.nyc3.digitaloceanspaces.com/media/map_images/pad_16_20200803143532.jpg","total_launch_count":227},"webcast_live":false,"image":"https://thespacedevs-prod.nyc3.digitaloceanspaces.com/media/images/falcon2520925_image_20221009234147.png","infographic":null,"program":[{"id":25,"url":"https://ll.thespacedevs.com/2.0.0/program/25/","name":"Starlink","description":"Starlink is a satellite internet constellation operated by American aerospace company SpaceX","agencies":[{"id":121,"url":"https://ll.thespacedevs.com/2.0.0/agencies/121/","name":"SpaceX","type":"Commercial"}],"image_url":"https://thespacedevs-prod.nyc3.digitaloceanspaces.com/media/images/starlink_program_20231228154508.jpeg","start_date":"2018-02-22T14:17:00Z","end_date":null,"info_url":"https://starlink.com","wiki_url":"https://en.wikipedia.org/wiki/Starlink"}]},{"id":"5d816773-89cb-48b9-9bf0-a9c4d8236785","url":"https://ll.thespacedevs.com/2.0.0/launch/5d816773-89cb-48b9-9bf0-a9c4d8236785/","launch_library_id":null,"slug":"electron-the-nation-god-navigates-iqps-launch-5","name":"Electron | The Nation God Navigates (iQPS Launch 5)","status":{"id":1,"name":"Go"},"net":"2025-11-05T19:45:00Z","window_end":"2025-11-05T19:45:00Z","window_start":"2025-11-05T19:45:00Z","inhold":false,"tbdtime":false,"tbddate":false,"probability":null,"holdreason":"","failreason":"","hashtag":null,"launch_service_provider":{"id":147,"url":"https://ll.thespacedevs.com/2.0.0/agencies/147/","name":"Rocket Lab","type":"Commercial"},"rocket":{"id":8544,"configuration":{"id":26,"launch_library_id":148,"url":"https://ll.thespacedevs.com/2.0.0/config/launcher/26/","name":"Electron","family":"","full_name":"Electron","variant":""}},"mission":{"id":7135,"launch_library_id":null,"name":"The Nation God Navigates (iQPS Launch 5)","description":"Synthetic aperture radar Earth observation satellite for Japanese Earth imaging company iQPS.","launch_designator":null,"type":"Earth Science","orbit":{"id":8,"name":"Low Earth Orbit","abbrev":"LEO"}},"pad":{"id":185,"url":"https://ll.thespacedevs.com/2.0.0/pad/185/","agency_id":147,"name":"Rocket Lab Launch Complex 1B","info_url":null,"wiki_url":"https://en.wikipedia.org/wiki/Rocket_Lab_Launch_Complex_1","map_url":"https://www.google.com/maps?q=-39.262833,177.864469","latitude":"-39.262833","longitude":"177.864469","location":{"id":10,"url":"https://ll.thespacedevs.com/2.0.0/location/10/","name":"Rocket Lab Launch Complex 1, Mahia Peninsula, New Zealand","country_code":"NZL","map_image":"https://thespacedevs-prod.nyc3.digitaloceanspaces.com/media/map_images/location_10_20200803142509.jpg","total_launch_count":65,"total_landing_count":17},"map_image":"https://thespacedevs-prod.nyc3.digitaloceanspaces.com/media/map_images/pad_185_20200803143540.jpg","total_launch_count":31},"webcast_live":false,"image":"https://thespacedevs-prod.nyc3.digitaloceanspaces.com/media/images/electron_image_20190705175640.jpeg","infographic":null,"program":[]},{"id":"9dd2d2b7-302b-4e9e-804c-aa176f606b6f","url":"https://ll.thespacedevs.com/2.0.0/launch/9dd2d2b7-302b-4e9e-804c-aa176f606b6f/","launch_library_id":null,"slug":"falcon-9-block-5-starlink-group-6-81","name":"Falcon 9 Block 5 | Starlink Group 6-81","status":{"id":2,"name":"TBD"},"net":"2025-11-05T23:08:00Z","window_end":"2025-11-06T03:08:00Z","window_start":"2025-11-05T23:08:00Z","inhold":false,"tbdtime":false,"tbddate":false,"probability":null,"holdreason":"","failreason":"","hashtag":null,"launch_service_provider":{"id":121,"url":"https://ll.thespacedevs.com/2.0.0/agencies/121/","name":"SpaceX","type":"Commercial"},"rocket":{"id":8780,"configuration":{"id":164,"launch_library_id":188,"url":"https://ll.thespacedevs.com/2.0.0/config/launcher/164/","name":"Falcon 9","family":"Falcon","full_name":"Falcon 9 Block 5","variant":"Block 5"}},"mission":{"id":7371,"launch_library_id":null,"name":"Starlink Group 6-81","description":"A batch of satellites for the Starlink mega-constellation - SpaceX's project for space-based Internet communication system.","launch_designator":null,"type":"Communications","orbit":{"id":8,"name":"Low Earth Orbit","abbrev":"LEO"}},"pad":{"id":80,"url":"https://ll.thespacedevs.com/2.0.0/pad/80/","agency_id":121,"name":"Space Launch Complex 40","info_url":null,"wiki_url":"https://en.wikipedia.org/wiki/Cape_Canaveral_Air_Force_Station_Space_Launch_Complex_40","map_url":"https://www.google.com/maps?q=28.56194122,-80.57735736","latitude":"28.56194122","longitude":"-80.57735736","location":{"id":12,"url":"https://ll.thespacedevs.com/2.0.0/location/12/","name":"Cape Canaveral SFS, FL, USA","country_code":"USA","map_image":"https://thespacedevs-prod.nyc3.digitaloceanspaces.com/media/map_images/location_12_20200803142519.jpg","total_launch_count":1062,"total_landing_count":68},"map_image":"https://thespacedevs-prod.nyc3.digitaloceanspaces.com/media/map_images/pad_80_20200803143323.jpg","total_launch_count":343},"webcast_live":false,"image":"https://thespacedevs-prod.nyc3.digitaloceanspaces.com/media/images/falcon2520925_image_20221009234147.png","infographic":null,"program":[{"id":25,"url":"https://ll.thespacedevs.com/2.0.0/program/25/","name":"Starlink","description":"Starlink is a satellite internet constellation operated by American aerospace company SpaceX","agencies":[{"id":121,"url":"https://ll.thespacedevs.com/2.0.0/agencies/121/","name":"SpaceX","type":"Commercial"}],"image_url":"https://thespacedevs-prod.nyc3.digitaloceanspaces.com/media/images/starlink_program_20231228154508.jpeg","start_date":"2018-02-22T14:17:00Z","end_date":null,"info_url":"https://starlink.com","wiki_url":"https://en.wikipedia.org/wiki/Starlink"}]},{"id":"47deaaf0-40d9-4400-bd92-4cabf1da5791","url":"https://ll.thespacedevs.com/2.0.0/launch/47deaaf0-40d9-4400-bd92-4cabf1da5791/","launch_library_id":1621,"slug":"atlas-v-551-viasat-3-f2-viasat-3-emea","name":"Atlas V 551 | ViaSat-3 F2 (ViaSat-3 EMEA)","status":{"id":1,"name":"Go"},"net":"2025-11-06T03:24:00Z","window_end":"2025-11-06T04:08:00Z","window_start":"2025-11-06T03:24:00Z","inhold":false,"tbdtime":false,"tbddate":false,"probability":null,"holdreason":"","failreason":"","hashtag":null,"launch_service_provider":{"id":124,"url":"https://ll.thespacedevs.com/2.0.0/agencies/124/","name":"United Launch Alliance","type":"Commercial"},"rocket":{"id":145,"configuration":{"id":27,"launch_library_id":37,"url":"https://ll.thespacedevs.com/2.0.0/config/launcher/27/","name":"Atlas V 551","family":"Atlas","full_name":"Atlas V 551","variant":"551"}},"mission":{"id":6217,"launch_library_id":null,"name":"ViaSat-3 F2 (ViaSat-3 EMEA)","description":"The ViaSat-3 is a series of three Ka-band satellites is expected to provide vastly superior capabilities in terms of service speed and flexibility for a satellite platform. Each ViaSat-3 class satellite is expected to deliver more than 1-Terabit per second of network capacity, and to leverage high levels of flexibility to dynamically direct capacity to where customers are located.","launch_designator":null,"type":"Communications","orbit":{"id":2,"name":"Geostationary Transfer Orbit","abbrev":"GTO"}},"pad":{"id":29,"url":"https://ll.thespacedevs.com/2.0.0/pad/29/","agency_id":null,"name":"Space Launch Complex 41","info_url":null,"wiki_url":"https://en.wikipedia.org/wiki/Cape_Canaveral_Air_Force_Station_Space_Launch_Complex_41","map_url":"https://www.google.com/maps?q=28.58341025,-80.58303644","latitude":"28.58341025","longitude":"-80.58303644","location":{"id":12,"url":"https://ll.thespacedevs.com/2.0.0/location/12/","name":"Cape Canaveral SFS, FL, USA","country_code":"USA","map_image":"https://thespacedevs-prod.nyc3.digitaloceanspaces.com/media/map_images/location_12_20200803142519.jpg","total_launch_count":1062,"total_landing_count":68},"map_image":"https://thespacedevs-prod.nyc3.digitaloceanspaces.com/media/map_images/pad_29_20200803143528.jpg","total_launch_count":118},"webcast_live":false,"image":"https://thespacedevs-prod.nyc3.digitaloceanspaces.com/media/images/atlas2520v2520551_image_20190224012316.jpeg","infographic":null,"program":[]}]}